…
::: {.cell}

```{.r .cell-code}
#install.packages("palmerpenguins",dep=TRUE)
library("palmerpenguins")
print(penguins, width = 50)
```

::: {.cell-output .cell-output-stdout}

```
# A tibble: 344 x 8
   species island    bill_length_mm bill_depth_mm
   <fct>   <fct>              <dbl>         <dbl>
 1 Adelie  Torgersen           39.1          18.7
 2 Adelie  Torgersen           39.5          17.4
 3 Adelie  Torgersen           40.3          18  
 4 Adelie  Torgersen           NA            NA  
 5 Adelie  Torgersen           36.7          19.3
 6 Adelie  Torgersen           39.3          20.6
 7 Adelie  Torgersen           38.9          17.8
 8 Adelie  Torgersen           39.2          19.6
 9 Adelie  Torgersen           34.1          18.1
10 Adelie  Torgersen           42            20.2
# i 334 more rows
# i 4 more variables: flipper_length_mm <int>,
#   body_mass_g <int>, sex <fct>, year <int>
```
…
  * Por defecto, `tibble()` imprime sólo las diez primeras filas, todas las columnas que caben en la pantalla, y las clases de las columnas



::: {.cell}

```{.r .cell-code}
penguins
```

::: {.cell-output .cell-output-stdout}

```
# A tibble: 344 x 8
   species island    bill_length_mm bill_depth_mm flipper_length_mm body_mass_g
   <fct>   <fct>              <dbl>         <dbl>             <int>       <int>
 1 Adelie  Torgersen           39.1          18.7               181        3750
 2 Adelie  Torgersen           39.5          17.4               186        3800
 3 Adelie  Torgersen           40.3          18                 195        3250
 4 Adelie  Torgersen           NA            NA                  NA          NA
 5 Adelie  Torgersen           36.7          19.3               193        3450
 6 Adelie  Torgersen           39.3          20.6               190        3650
 7 Adelie  Torgersen           38.9          17.8               181        3625
 8 Adelie  Torgersen           39.2          19.6               195        4675
 9 Adelie  Torgersen           34.1          18.1               193        3475
10 Adelie  Torgersen           42            20.2               190        4250
# i 334 more rows
# i 2 more variables: sex <fct>, year <int>
```
…
* Para deshacer las estructuras de datos anidados se puede usar la función `tidyr::unnest()`.


::: {.cell}

```{.r .cell-code}
nested_penguins %>% unnest(cols = c(nested_data)) 
```

::: {.cell-output .cell-output-stdout}

```
# A tibble: 344 x 8
   species  year island    bill_length_mm bill_depth_mm flipper_length_mm
   <fct>   <int> <fct>              <dbl>         <dbl>             <int>
 1 Adelie   2007 Torgersen           39.1          18.7               181
 2 Adelie   2007 Torgersen           39.5          17.4               186
 3 Adelie   2007 Torgersen           40.3          18                 195
 4 Adelie   2007 Torgersen           NA            NA                  NA
 5 Adelie   2007 Torgersen           36.7          19.3               193
 6 Adelie   2007 Torgersen           39.3          20.6               190
 7 Adelie   2007 Torgersen           38.9          17.8               181
 8 Adelie   2007 Torgersen           39.2          19.6               195
 9 Adelie   2007 Torgersen           34.1          18.1               193
10 Adelie   2007 Torgersen           42            20.2               190
# i 334 more rows
# i 2 more variables: body_mass_g <int>, sex <fct>
```
…
* [Ejemplo]{style="color: blue;"}: Dividir y combinar múltiples columnas en una sola.



::: {.cell}

```{.r .cell-code}
penguins %>% unite(col = "specie_sex",
                   c(species, sex), sep = "_", remove = T)
```

::: {.cell-output .cell-output-stdout}

```
# A tibble: 344 x 7
   specie_sex  island bill_length_mm bill_depth_mm flipper_length_mm body_mass_g
   <chr>       <fct>           <dbl>         <dbl>             <int>       <int>
 1 Adelie_male Torge~           39.1          18.7               181        3750
 2 Adelie_fem~ Torge~           39.5          17.4               186        3800
 3 Adelie_fem~ Torge~           40.3          18                 195        3250
 4 Adelie_NA   Torge~           NA            NA                  NA          NA
 5 Adelie_fem~ Torge~           36.7          19.3               193        3450
 6 Adelie_male Torge~           39.3          20.6               190        3650
 7 Adelie_fem~ Torge~           38.9          17.8               181        3625
 8 Adelie_male Torge~           39.2          19.6               195        4675
 9 Adelie_NA   Torge~           34.1          18.1               193        3475
10 Adelie_NA   Torge~           42            20.2               190        4250
# i 334 more rows
# i 1 more variable: year <int>
```
…
* [Ejemplo]{style="color: blue;"}: Separar una sola columna, que contiene varios valores, en varias columnas.


::: {.cell}

```{.r .cell-code}
penguins %>% separate(bill_length_mm, sep = 2, into = c("cm", "mm"))
```

::: {.cell-output .cell-output-stdout}

```
# A tibble: 344 x 9
   species island  cm    mm    bill_depth_mm flipper_length_mm body_mass_g sex  
   <fct>   <fct>   <chr> <chr>         <dbl>             <int>       <int> <fct>
 1 Adelie  Torger~ 39    ".1"           18.7               181        3750 male 
 2 Adelie  Torger~ 39    ".5"           17.4               186        3800 fema~
 3 Adelie  Torger~ 40    ".3"           18                 195        3250 fema~
 4 Adelie  Torger~ <NA>  <NA>           NA                  NA          NA <NA> 
 5 Adelie  Torger~ 36    ".7"           19.3               193        3450 fema~
 6 Adelie  Torger~ 39    ".3"           20.6               190        3650 male 
 7 Adelie  Torger~ 38    ".9"           17.8               181        3625 fema~
 8 Adelie  Torger~ 39    ".2"           19.6               195        4675 male 
 9 Adelie  Torger~ 34    ".1"           18.1               193        3475 <NA> 
10 Adelie  Torger~ 42    ""             20.2               190        4250 <NA> 
# i 334 more rows
# i 1 more variable: year <int>
```
…
* [Ejemplo]{style="color: blue;"}: Separar una sola columna, que contiene varios valores, en varias filas.


::: {.cell}

```{.r .cell-code}
penguins %>% separate_rows(island, sep = "s", convert = T)
```

::: {.cell-output .cell-output-stdout}

```
# A tibble: 564 x 8
   species island bill_length_mm bill_depth_mm flipper_length_mm body_mass_g
   <fct>   <chr>           <dbl>         <dbl>             <int>       <int>
 1 Adelie  Torger           39.1          18.7               181        3750
 2 Adelie  en               39.1          18.7               181        3750
 3 Adelie  Torger           39.5          17.4               186        3800
 4 Adelie  en               39.5          17.4               186        3800
 5 Adelie  Torger           40.3          18                 195        3250
 6 Adelie  en               40.3          18                 195        3250
 7 Adelie  Torger           NA            NA                  NA          NA
 8 Adelie  en               NA            NA                  NA          NA
 9 Adelie  Torger           36.7          19.3               193        3450
10 Adelie  en               36.7          19.3               193        3450
# i 554 more rows
# i 2 more variables: sex <fct>, year <int>
```
…
[Ejemplo]{style="color: blue;"}: Seleccionar un data frame con los pingüinos de la especie "Adelie".



::: {.cell}

```{.r .cell-code}
penguins %>% 
  filter(species == "Adelie")
```

::: {.cell-output .cell-output-stdout}

```
# A tibble: 152 x 8
   species island    bill_length_mm bill_depth_mm flipper_length_mm body_mass_g
   <fct>   <fct>              <dbl>         <dbl>             <int>       <int>
 1 Adelie  Torgersen           39.1          18.7               181        3750
 2 Adelie  Torgersen           39.5          17.4               186        3800
 3 Adelie  Torgersen           40.3          18                 195        3250
 4 Adelie  Torgersen           NA            NA                  NA          NA
 5 Adelie  Torgersen           36.7          19.3               193        3450
 6 Adelie  Torgersen           39.3          20.6               190        3650
 7 Adelie  Torgersen           38.9          17.8               181        3625
 8 Adelie  Torgersen           39.2          19.6               195        4675
 9 Adelie  Torgersen           34.1          18.1               193        3475
10 Adelie  Torgersen           42            20.2               190        4250
# i 142 more rows
# i 2 more variables: sex <fct>, year <int>
```
…
::: {.cell}

```{.r .cell-code}
penguins %>% 
  filter(between(body_mass_g, 3800, 4000) & (year < 2008 | year > 2008))
```

::: {.cell-output .cell-output-stdout}

```
# A tibble: 28 x 8
   species island    bill_length_mm bill_depth_mm flipper_length_mm body_mass_g
   <fct>   <fct>              <dbl>         <dbl>             <int>       <int>
 1 Adelie  Torgersen           39.5          17.4               186        3800
 2 Adelie  Torgersen           38.6          21.2               191        3800
 3 Adelie  Biscoe              35.9          19.2               189        3800
 4 Adelie  Biscoe              38.2          18.1               185        3950
 5 Adelie  Biscoe              38.8          17.2               180        3800
 6 Adelie  Biscoe              35.3          18.9               187        3800
 7 Adelie  Biscoe              40.5          18.9               180        3950
 8 Adelie  Dream               37.2          18.1               178        3900
 9 Adelie  Dream               40.9          18.9               184        3900
10 Adelie  Dream               38.8          20                 190        3950
# i 18 more rows
# i 2 more variables: sex <fct>, year <int>
```
…
[Ejemplo]{style="color: blue;"}: Partición de los datos por tipo de especie del pingüino



::: {.cell}

```{.r .cell-code}
penguins %>% group_by(species)
```

::: {.cell-output .cell-output-stdout}

```
# A tibble: 344 x 8
# Groups:   species [3]
   species island    bill_length_mm bill_depth_mm flipper_length_mm body_mass_g
   <fct>   <fct>              <dbl>         <dbl>             <int>       <int>
 1 Adelie  Torgersen           39.1          18.7               181        3750
 2 Adelie  Torgersen           39.5          17.4               186        3800
 3 Adelie  Torgersen           40.3          18                 195        3250
 4 Adelie  Torgersen           NA            NA                  NA          NA
 5 Adelie  Torgersen           36.7          19.3               193        3450
 6 Adelie  Torgersen           39.3          20.6               190        3650
 7 Adelie  Torgersen           38.9          17.8               181        3625
 8 Adelie  Torgersen           39.2          19.6               195        4675
 9 Adelie  Torgersen           34.1          18.1               193        3475
10 Adelie  Torgersen           42            20.2               190        4250
# i 334 more rows
# i 2 more variables: sex <fct>, year <int>
```
…
::: {.cell}

```{.r .cell-code}
penguins %>% 
  group_by(species) %>% 
  group_by(year, .add = T)   # equivalente a: group_by(species, year)
```

::: {.cell-output .cell-output-stdout}

```
# A tibble: 344 x 8
# Groups:   species, year [9]
   species island    bill_length_mm bill_depth_mm flipper_length_mm body_mass_g
   <fct>   <fct>              <dbl>         <dbl>             <int>       <int>
 1 Adelie  Torgersen           39.1          18.7               181        3750
 2 Adelie  Torgersen           39.5          17.4               186        3800
 3 Adelie  Torgersen           40.3          18                 195        3250
 4 Adelie  Torgersen           NA            NA                  NA          NA
 5 Adelie  Torgersen           36.7          19.3               193        3450
 6 Adelie  Torgersen           39.3          20.6               190        3650
 7 Adelie  Torgersen           38.9          17.8               181        3625
 8 Adelie  Torgersen           39.2          19.6               195        4675
 9 Adelie  Torgersen           34.1          18.1               193        3475
10 Adelie  Torgersen           42            20.2               190        4250
# i 334 more rows
# i 2 more variables: sex <fct>, year <int>
```
…
::: {.cell}

```{.r .cell-code}
penguins %>% select(species, island, body_mass_g) %>% 
  mutate(penguin_size = if_else(body_mass_g < 3500,
                                "pequeño",
                                "grande"))
```

::: {.cell-output .cell-output-stdout}

```
# A tibble: 344 x 4
   species island    body_mass_g penguin_size
   <fct>   <fct>           <int> <chr>       
 1 Adelie  Torgersen        3750 grande      
 2 Adelie  Torgersen        3800 grande      
 3 Adelie  Torgersen        3250 pequeño     
 4 Adelie  Torgersen          NA <NA>        
 5 Adelie  Torgersen        3450 pequeño     
 6 Adelie  Torgersen        3650 grande      
 7 Adelie  Torgersen        3625 grande      
 8 Adelie  Torgersen        4675 grande      
 9 Adelie  Torgersen        3475 pequeño     
10 Adelie  Torgersen        4250 grande      
# i 334 more rows
```
…
* `lag()` desplaza los valores de las columnas `n` posiciones hacia adelante



::: {.cell}

```{.r .cell-code}
penguins %>% select(species, body_mass_g) %>% 
  mutate(lagged_bm = lag(body_mass_g, n = 1))
```

::: {.cell-output .cell-output-stdout}

```
# A tibble: 344 x 3
   species body_mass_g lagged_bm
   <fct>         <int>     <int>
 1 Adelie         3750        NA
 2 Adelie         3800      3750
 3 Adelie         3250      3800
 4 Adelie           NA      3250
 5 Adelie         3450        NA
 6 Adelie         3650      3450
 7 Adelie         3625      3650
 8 Adelie         4675      3625
 9 Adelie         3475      4675
10 Adelie         4250      3475
# i 334 more rows
```
…
