Matemáticas y Estadística Farmacia - 2 Introducción al Análisis de Datos
…
Formad grupos de 3 integrantes.

Trabajaréis con los datos pingüinos, leed la documentación y seguid las siguientes instrucciones:

Cread un repositorio en Github para vuestro grupo con un nombre que sea fácilmente identificable para los profesores de la asignatura, por ejemplo,“Entrega_1_AD”.

Cread un proyecto nuevo en RStudio conectado al repositorio que habéis creado en el paso anterior. Agregad un documento de quarto donde trabajaréis.

Instalad y cargad en RStudio la librería palmerpenguins , así como el conjunto de datos penguins

#install.packages("palmerpenguins",dep=TRUE)
library("palmerpenguins")
print(penguins, width = 50)

# A tibble: 344 × 8
   species island    bill_length_mm bill_depth_mm
   <fct>   <fct>              <dbl>         <dbl>
 1 Adelie  Torgersen           39.1          18.7
 2 Adelie  Torgersen           39.5          17.4
 3 Adelie  Torgersen           40.3          18  
 4 Adelie  Torgersen           NA            NA  
 5 Adelie  Torgersen           36.7          19.3
 6 Adelie  Torgersen           39.3          20.6
 7 Adelie  Torgersen           38.9          17.8
 8 Adelie  Torgersen           39.2          19.6
 9 Adelie  Torgersen           34.1          18.1
10 Adelie  Torgersen           42            20.2
# ℹ 334 more rows
# ℹ 4 more variables: flipper_length_mm <int>,
#   body_mass_g <int>, sex <fct>, year <int>
…
